{
  "project_info": {
    "project_number": "913753912196",
    "firebase_url": "https://blissful-cell-232207.firebaseio.com",
    "project_id": "blissful-cell-232207",
    "storage_bucket": "blissful-cell-232207.appspot.com"
  },
  "client": [
    {
      "client_info": {
        "mobilesdk_app_id": "1:913753912196:android:003ddaeb3e5c3ecd91e3d1",
        "android_client_info": {
          "package_name": "com.example.myapplication"
        }
      },
      "oauth_client": [
        {
          "client_id": "913753912196-uh22tfiddqih4snk6ijaoprv76cvm821.apps.googleusercontent.com",
          "client_type": 1,
          "android_info": {
            "package_name": "com.example.myapplication",
            "certificate_hash": "c00e9d1d63c6acc308a9d44b8dd988b499af32f4"
          }
        },
        {
          "client_id": "913753912196-s2obm587m4mvsuvj969bquknusp2co0p.apps.googleusercontent.com",
          "client_type": 3
        }
      ],
      "api_key": [
        {
          "current_key": "AIzaSyDiDfO1vffPVAtSErwC-Wjm5wEvgFfYvPQ"
        }
      ],
      "services": {
        "appinvite_service": {
          "other_platform_oauth_client": [
            {
              "client_id": "913753912196-s2obm587m4mvsuvj969bquknusp2co0p.apps.googleusercontent.com",
              "client_type": 3
            }
          ]
        }
      }
    }
  ],
  "configuration_version": "1"
}